{
  "code": 200,
  "message": "",
  "data": {
    "current_page": 1,
    "data": [
      {
        "id": 1,
        "name": "Cummerata and Sons",
        "type": "other",
        "contacts": "Ms. Francesca Dach V",
        "mobile": "13985252187",
        "phone": "+15638264777",
        "email": "fake_arnold.bogisich@example.org",
        "address": "32454 Travis Centers\nNorth Madalynfort, GA 62194",
        "logo": "\/\/lorempixel.com\/360\/360\/?34264",
        "area_code": "510107000000",
        "area_name": "\u6b66\u4faf\u533a",
        "commission_rate": 6.412,
        "total_clue": 3,
        "total_success_order": 8,
        "total_money": 7558490,
        "sort": 215,
        "first_letter": "C",
        "full_letter": "cummerataandsons",
        "created_at": "2018-03-14 15:17:58",
        "updated_at": "2018-03-14 15:17:58",
        "deleted_at": null
      },
      {
        "id": 2,
        "name": "Yost-Renner",
        "type": "company",
        "contacts": "Mr. Garett Waters",
        "mobile": "13976566974",
        "phone": "347-288-8821 x42895",
        "email": "fake_collier.lorenz@example.net",
        "address": "22774 Fritz Coves Suite 258\nEast Clare, GA 47761",
        "logo": "\/\/lorempixel.com\/360\/360\/?15538",
        "area_code": "510107000000",
        "area_name": "\u6b66\u4faf\u533a",
        "commission_rate": 6.807,
        "total_clue": 0,
        "total_success_order": 5,
        "total_money": 8131553,
        "sort": 5012,
        "first_letter": "Y",
        "full_letter": "yostrenner",
        "created_at": "2018-03-14 15:18:00",
        "updated_at": "2018-03-14 15:18:00",
        "deleted_at": null
      },
      {
        "id": 3,
        "name": "Rolfson-Dooley",
        "type": "company",
        "contacts": "Rhianna Gulgowski III",
        "mobile": "13926182025",
        "phone": "637.627.1612",
        "email": "fake_wolff.dashawn@example.org",
        "address": "2803 Elliot Ports\nRhiannontown, MS 87949-9090",
        "logo": "\/\/lorempixel.com\/360\/360\/?13616",
        "area_code": "510107000000",
        "area_name": "\u6b66\u4faf\u533a",
        "commission_rate": 0.533,
        "total_clue": 1,
        "total_success_order": 5,
        "total_money": 589541,
        "sort": 7379,
        "first_letter": "R",
        "full_letter": "rolfsondooley",
        "created_at": "2018-03-14 15:18:00",
        "updated_at": "2018-03-14 15:18:00",
        "deleted_at": null
      },
      {
        "id": 4,
        "name": "Dickens, Welch and Schultz",
        "type": "personal",
        "contacts": "Ervin Treutel PhD",
        "mobile": "13968476687",
        "phone": "775.252.1861 x5972",
        "email": "fake_hermann.alfreda@example.org",
        "address": "931 Kaela Greens Apt. 308\nNorth Chloe, OR 58969",
        "logo": "\/\/lorempixel.com\/360\/360\/?33609",
        "area_code": "510107000000",
        "area_name": "\u6b66\u4faf\u533a",
        "commission_rate": 0.219,
        "total_clue": 4,
        "total_success_order": 6,
        "total_money": 6315567,
        "sort": 4656,
        "first_letter": "D",
        "full_letter": "dickenswelchandschultz",
        "created_at": "2018-03-14 15:18:00",
        "updated_at": "2018-03-14 15:18:00",
        "deleted_at": null
      },
      {
        "id": 6,
        "name": "Leffler, Turcotte and Bosco",
        "type": "personal",
        "contacts": "Jack Roberts",
        "mobile": "13928028649",
        "phone": "992-362-0205 x3897",
        "email": "fake_bailey.garry@example.org",
        "address": "4382 Ankunding Forest Suite 120\nManteside, VA 60317-5604",
        "logo": "\/\/lorempixel.com\/360\/360\/?16102",
        "area_code": "510107000000",
        "area_name": "\u6b66\u4faf\u533a",
        "commission_rate": 6.375,
        "total_clue": 1,
        "total_success_order": 3,
        "total_money": 4477730,
        "sort": 5830,
        "first_letter": "L",
        "full_letter": "lefflerturcotteandbosco",
        "created_at": "2018-03-14 15:18:00",
        "updated_at": "2018-03-14 15:18:00",
        "deleted_at": null
      },
      {
        "id": 7,
        "name": "Parisian Ltd",
        "type": "other",
        "contacts": "Addie Wisoky",
        "mobile": "13959952435",
        "phone": "1-519-264-4251 x7421",
        "email": "fake_erling43@example.com",
        "address": "633 Abel Bypass\nSouth Elianfort, NE 88255",
        "logo": "\/\/lorempixel.com\/360\/360\/?85474",
        "area_code": "510107000000",
        "area_name": "\u6b66\u4faf\u533a",
        "commission_rate": 3.934,
        "total_clue": 9,
        "total_success_order": 1,
        "total_money": 955597,
        "sort": 4317,
        "first_letter": "P",
        "full_letter": "parisianltd",
        "created_at": "2018-03-14 15:18:00",
        "updated_at": "2018-03-14 15:18:00",
        "deleted_at": null
      },
      {
        "id": 8,
        "name": "Satterfield Group",
        "type": "personal",
        "contacts": "Roscoe Muller III",
        "mobile": "13965484342",
        "phone": "790.787.2860",
        "email": "fake_diana31@example.org",
        "address": "95494 Bernier Burg Apt. 750\nSouth Reidbury, MA 88376",
        "logo": "\/\/lorempixel.com\/360\/360\/?19774",
        "area_code": "510107000000",
        "area_name": "\u6b66\u4faf\u533a",
        "commission_rate": 1.418,
        "total_clue": 9,
        "total_success_order": 5,
        "total_money": 452673,
        "sort": 4492,
        "first_letter": "S",
        "full_letter": "satterfieldgroup",
        "created_at": "2018-03-14 15:18:00",
        "updated_at": "2018-03-14 15:18:00",
        "deleted_at": null
      },
      {
        "id": 9,
        "name": "Kuhlman, Fadel and Ledner",
        "type": "",
        "contacts": "Phoebe Gutmann Sr.",
        "mobile": "13993148023",
        "phone": "(772) 689-4890",
        "email": "fake_keeling.hilton@example.org",
        "address": "37840 Cole Parkways\nJerdestad, ID 57853-3651",
        "logo": "\/\/lorempixel.com\/360\/360\/?34421",
        "area_code": "510107000000",
        "area_name": "\u6b66\u4faf\u533a",
        "commission_rate": 4.61,
        "total_clue": 1,
        "total_success_order": 1,
        "total_money": 4082506,
        "sort": 5087,
        "first_letter": "K",
        "full_letter": "kuhlmanfadelandledner",
        "created_at": "2018-03-14 15:18:00",
        "updated_at": "2018-03-14 15:18:00",
        "deleted_at": null
      },
      {
        "id": 10,
        "name": "Kovacek-Reilly",
        "type": "company",
        "contacts": "Frederick Kuphal",
        "mobile": "13925424736",
        "phone": "1-261-227-0059 x3570",
        "email": "fake_arvel60@example.org",
        "address": "2217 Dooley Pike\nEast Francochester, TN 74992-1063",
        "logo": "\/\/lorempixel.com\/360\/360\/?79790",
        "area_code": "510107000000",
        "area_name": "\u6b66\u4faf\u533a",
        "commission_rate": 2.858,
        "total_clue": 2,
        "total_success_order": 1,
        "total_money": 100160,
        "sort": 4206,
        "first_letter": "K",
        "full_letter": "kovacekreilly",
        "created_at": "2018-03-14 15:18:00",
        "updated_at": "2018-03-14 15:18:00",
        "deleted_at": null
      },
      {
        "id": 11,
        "name": "Grant Ltd",
        "type": "company",
        "contacts": "Mckayla Cremin",
        "mobile": "13944808389",
        "phone": "1-708-719-9865",
        "email": "fake_pking@example.net",
        "address": "88462 Allan Curve\nEast Kristin, NM 20002",
        "logo": "\/\/lorempixel.com\/360\/360\/?77952",
        "area_code": "510107000000",
        "area_name": "\u6b66\u4faf\u533a",
        "commission_rate": 1.334,
        "total_clue": 9,
        "total_success_order": 5,
        "total_money": 1586137,
        "sort": 4124,
        "first_letter": "G",
        "full_letter": "grantltd",
        "created_at": "2018-03-14 15:18:00",
        "updated_at": "2018-03-14 15:18:00",
        "deleted_at": null
      }
    ],
    "first_page_url": "http:\/\/qasales2.mxj.mx\/manage\/intermediaries\/lists?page_size=10&page=1",
    "from": 1,
    "last_page": 11,
    "last_page_url": "http:\/\/qasales2.mxj.mx\/manage\/intermediaries\/lists?page_size=10&page=11",
    "next_page_url": "http:\/\/qasales2.mxj.mx\/manage\/intermediaries\/lists?page_size=10&page=2",
    "path": "http:\/\/qasales2.mxj.mx\/manage\/intermediaries\/lists",
    "per_page": 10,
    "prev_page_url": null,
    "to": 10,
    "total": 101
  }
}