{"code":200,"message":"","data":{"current_page":1,"data":[{"id":165,"name":"fake_Jazmyn Little","email":"fake_marianna30@example.net","created_at":"2018-03-13 16:55:17","updated_at":"2018-03-13 16:55:17","deleted_at":null,"mobile":"13801***174","avatar":"","login_at":"2018-03-13 16:55:13","login_ip":"127.0.0.1","login_address":"\u672c\u673a","total_login":1,"is_locked":0,"signup_ip":"127.0.0.1","signup_address":"\u672c\u673a","api_token":"","bind_one":{"id":165,"app_slug":"sso","app_user_id":"fake_64467564","app_user_data":null,"user_id":165,"created_at":"2018-03-13 16:55:18","updated_at":"2018-03-13 16:55:18","deleted_at":null},"multi_attrs":[{"id":165,"skey":"role","svalue":"seller","user_id":165,"created_at":"2018-03-13 16:55:18","updated_at":"2018-03-13 16:55:18","deleted_at":null}]},{"id":170,"name":"fake_Chaz Donnelly","email":"fake_jaqueline55@example.com","created_at":"2018-03-13 16:55:17","updated_at":"2018-03-13 16:55:17","deleted_at":null,"mobile":"13846***574","avatar":"","login_at":"2018-03-13 16:55:13","login_ip":"127.0.0.1","login_address":"\u672c\u673a","total_login":1,"is_locked":0,"signup_ip":"127.0.0.1","signup_address":"\u672c\u673a","api_token":"","bind_one":{"id":170,"app_slug":"sso","app_user_id":"fake_02788870","app_user_data":null,"user_id":170,"created_at":"2018-03-13 16:55:18","updated_at":"2018-03-13 16:55:18","deleted_at":null},"multi_attrs":[{"id":170,"skey":"role","svalue":"seller","user_id":170,"created_at":"2018-03-13 16:55:18","updated_at":"2018-03-13 16:55:18","deleted_at":null}]},{"id":171,"name":"fake_Dr. Ali Emmerich","email":"fake_cleve54@example.org","created_at":"2018-03-13 16:55:17","updated_at":"2018-03-13 16:55:17","deleted_at":null,"mobile":"13882***188","avatar":"","login_at":"2018-03-13 16:55:13","login_ip":"127.0.0.1","login_address":"\u672c\u673a","total_login":1,"is_locked":0,"signup_ip":"127.0.0.1","signup_address":"\u672c\u673a","api_token":"","bind_one":{"id":171,"app_slug":"sso","app_user_id":"fake_57448398","app_user_data":null,"user_id":171,"created_at":"2018-03-13 16:55:18","updated_at":"2018-03-13 16:55:18","deleted_at":null},"multi_attrs":[{"id":171,"skey":"role","svalue":"seller","user_id":171,"created_at":"2018-03-13 16:55:18","updated_at":"2018-03-13 16:55:18","deleted_at":null}]},{"id":174,"name":"fake_Dr. Gladyce Stamm IV","email":"fake_vsporer@example.org","created_at":"2018-03-13 16:55:17","updated_at":"2018-03-13 16:55:17","deleted_at":null,"mobile":"13861***876","avatar":"","login_at":"2018-03-13 16:55:13","login_ip":"127.0.0.1","login_address":"\u672c\u673a","total_login":1,"is_locked":0,"signup_ip":"127.0.0.1","signup_address":"\u672c\u673a","api_token":"","bind_one":{"id":174,"app_slug":"sso","app_user_id":"fake_48885072","app_user_data":null,"user_id":174,"created_at":"2018-03-13 16:55:18","updated_at":"2018-03-13 16:55:18","deleted_at":null},"multi_attrs":[{"id":174,"skey":"role","svalue":"seller","user_id":174,"created_at":"2018-03-13 16:55:18","updated_at":"2018-03-13 16:55:18","deleted_at":null}]},{"id":176,"name":"fake_Aisha Ziemann II","email":"fake_tgerhold@example.net","created_at":"2018-03-13 16:55:17","updated_at":"2018-03-13 16:55:17","deleted_at":null,"mobile":"13842***183","avatar":"","login_at":"2018-03-13 16:55:13","login_ip":"127.0.0.1","login_address":"\u672c\u673a","total_login":1,"is_locked":0,"signup_ip":"127.0.0.1","signup_address":"\u672c\u673a","api_token":"","bind_one":{"id":176,"app_slug":"sso","app_user_id":"fake_45128152","app_user_data":null,"user_id":176,"created_at":"2018-03-13 16:55:18","updated_at":"2018-03-13 16:55:18","deleted_at":null},"multi_attrs":[{"id":176,"skey":"role","svalue":"seller","user_id":176,"created_at":"2018-03-13 16:55:18","updated_at":"2018-03-13 16:55:18","deleted_at":null},{"id":315,"skey":"seller_group_id","svalue":"1","user_id":176,"created_at":"2018-03-19 15:29:21","updated_at":"2018-03-19 15:29:21","deleted_at":null}],"seller_group_name":"\u9500\u552e\u4eba\u4e00\u7ec4","seller_group_id":"1"},{"id":181,"name":"fake_Laila Doyle","email":"fake_bashirian.guiseppe@example.net","created_at":"2018-03-13 16:55:17","updated_at":"2018-03-13 16:55:17","deleted_at":null,"mobile":"13827***442","avatar":"","login_at":"2018-03-13 16:55:13","login_ip":"127.0.0.1","login_address":"\u672c\u673a","total_login":1,"is_locked":0,"signup_ip":"127.0.0.1","signup_address":"\u672c\u673a","api_token":"","bind_one":{"id":181,"app_slug":"sso","app_user_id":"fake_64356862","app_user_data":null,"user_id":181,"created_at":"2018-03-13 16:55:18","updated_at":"2018-03-13 16:55:18","deleted_at":null},"multi_attrs":[{"id":181,"skey":"role","svalue":"seller","user_id":181,"created_at":"2018-03-13 16:55:18","updated_at":"2018-03-13 16:55:18","deleted_at":null}]},{"id":187,"name":"fake_Miss Albina McLaughlin Sr.","email":"fake_holson@example.org","created_at":"2018-03-13 16:55:17","updated_at":"2018-03-13 16:55:17","deleted_at":null,"mobile":"13802***850","avatar":"","login_at":"2018-03-13 16:55:13","login_ip":"127.0.0.1","login_address":"\u672c\u673a","total_login":1,"is_locked":0,"signup_ip":"127.0.0.1","signup_address":"\u672c\u673a","api_token":"","bind_one":{"id":187,"app_slug":"sso","app_user_id":"fake_14448082","app_user_data":null,"user_id":187,"created_at":"2018-03-13 16:55:18","updated_at":"2018-03-13 16:55:18","deleted_at":null},"multi_attrs":[{"id":187,"skey":"role","svalue":"seller","user_id":187,"created_at":"2018-03-13 16:55:18","updated_at":"2018-03-13 16:55:18","deleted_at":null}]},{"id":190,"name":"fake_Heidi Reinger","email":"fake_jkirlin@example.com","created_at":"2018-03-13 16:55:17","updated_at":"2018-03-13 16:55:17","deleted_at":null,"mobile":"13846***404","avatar":"","login_at":"2018-03-13 16:55:13","login_ip":"127.0.0.1","login_address":"\u672c\u673a","total_login":1,"is_locked":0,"signup_ip":"127.0.0.1","signup_address":"\u672c\u673a","api_token":"","bind_one":{"id":190,"app_slug":"sso","app_user_id":"fake_62591634","app_user_data":null,"user_id":190,"created_at":"2018-03-13 16:55:18","updated_at":"2018-03-13 16:55:18","deleted_at":null},"multi_attrs":[{"id":190,"skey":"role","svalue":"seller","user_id":190,"created_at":"2018-03-13 16:55:18","updated_at":"2018-03-13 16:55:18","deleted_at":null}]},{"id":194,"name":"fake_Tyler Schiller","email":"fake_ibarrows@example.com","created_at":"2018-03-13 16:55:17","updated_at":"2018-03-13 16:55:17","deleted_at":null,"mobile":"13870***430","avatar":"","login_at":"2018-03-13 16:55:13","login_ip":"127.0.0.1","login_address":"\u672c\u673a","total_login":1,"is_locked":0,"signup_ip":"127.0.0.1","signup_address":"\u672c\u673a","api_token":"","bind_one":{"id":194,"app_slug":"sso","app_user_id":"fake_44405283","app_user_data":null,"user_id":194,"created_at":"2018-03-13 16:55:18","updated_at":"2018-03-13 16:55:18","deleted_at":null},"multi_attrs":[{"id":194,"skey":"role","svalue":"seller","user_id":194,"created_at":"2018-03-13 16:55:18","updated_at":"2018-03-13 16:55:18","deleted_at":null},{"id":344,"skey":"seller_leader","svalue":"199","user_id":194,"created_at":"2018-03-20 16:41:15","updated_at":"2018-03-20 16:41:15","deleted_at":null}],"seller_leader_name":"\u5f20\u627f","seller_leader_id":"199"},{"id":195,"name":"\u738b\u4e8c","email":"fake_eugene.durgan@example.org","created_at":"2018-03-13 16:55:17","updated_at":"2018-03-13 16:55:17","deleted_at":null,"mobile":"13816***923","avatar":"","login_at":"2018-03-13 16:55:13","login_ip":"127.0.0.1","login_address":"\u672c\u673a","total_login":1,"is_locked":0,"signup_ip":"127.0.0.1","signup_address":"\u672c\u673a","api_token":"","bind_one":{"id":195,"app_slug":"sso","app_user_id":"fake_90477208","app_user_data":null,"user_id":195,"created_at":"2018-03-13 16:55:18","updated_at":"2018-03-13 16:55:18","deleted_at":null},"multi_attrs":[{"id":195,"skey":"role","svalue":"seller","user_id":195,"created_at":"2018-03-13 16:55:18","updated_at":"2018-03-13 16:55:18","deleted_at":null},{"id":316,"skey":"seller_group_id","svalue":"3","user_id":195,"created_at":"2018-03-19 15:30:01","updated_at":"2018-03-19 15:30:01","deleted_at":null},{"id":343,"skey":"seller_leader","svalue":"199","user_id":195,"created_at":"2018-03-20 16:41:11","updated_at":"2018-03-20 16:41:11","deleted_at":null}],"seller_group_name":"\u9500\u552e\u4eba\u4e09\u7ec4","seller_group_id":"3","seller_leader_name":"\u5f20\u627f","seller_leader_id":"199"},{"id":199,"name":"\u5f20\u627f","email":"fake_gmiller@example.net","created_at":"2018-03-13 16:55:17","updated_at":"2018-03-13 16:55:17","deleted_at":null,"mobile":"13826***482","avatar":"","login_at":"2018-03-13 16:55:13","login_ip":"127.0.0.1","login_address":"\u672c\u673a","total_login":1,"is_locked":0,"signup_ip":"127.0.0.1","signup_address":"\u672c\u673a","api_token":"","bind_one":{"id":199,"app_slug":"sso","app_user_id":"fake_12286668","app_user_data":null,"user_id":199,"created_at":"2018-03-13 16:55:18","updated_at":"2018-03-13 16:55:18","deleted_at":null},"multi_attrs":[{"id":199,"skey":"role","svalue":"seller","user_id":199,"created_at":"2018-03-13 16:55:18","updated_at":"2018-03-13 16:55:18","deleted_at":null}]},{"id":201,"name":"\u6bb5\u664b","email":"duan.jin@mydreamplus.com","created_at":"2018-03-13 16:55:17","updated_at":"2018-03-13 16:55:17","deleted_at":null,"mobile":"13893***923","avatar":"https:\/\/duanjin.top\/wp-content\/uploads\/ultimatemember\/1\/profile_photo-80.jpeg?1521027989","login_at":"2018-03-13 16:55:13","login_ip":"127.0.0.1","login_address":"\u672c\u673a","total_login":1,"is_locked":0,"signup_ip":"127.0.0.1","signup_address":"\u672c\u673a","api_token":"","bind_one":{"id":201,"app_slug":"sso","app_user_id":"fake_08494764","app_user_data":null,"user_id":201,"created_at":"2018-03-13 16:55:18","updated_at":"2018-03-13 16:55:18","deleted_at":null},"multi_attrs":[{"id":201,"skey":"role","svalue":"seller","user_id":201,"created_at":"2018-03-13 16:55:18","updated_at":"2018-03-13 16:55:18","deleted_at":null},{"id":310,"skey":"seller_group_id","svalue":"3","user_id":201,"created_at":"2018-03-19 11:17:21","updated_at":"2018-03-19 11:17:21","deleted_at":null},{"id":341,"skey":"seller_leader","svalue":"199","user_id":201,"created_at":"2018-03-20 16:06:38","updated_at":"2018-03-20 16:06:38","deleted_at":null}],"seller_group_name":"\u9500\u552e\u4eba\u4e09\u7ec4","seller_group_id":"3","seller_leader_name":"\u5f20\u627f","seller_leader_id":"199"},{"id":153,"name":"fake_Name Hills","email":"fake_dframi@example.com","created_at":"2018-03-13 16:55:14","updated_at":"2018-03-13 16:55:14","deleted_at":null,"mobile":"13826***846","avatar":"","login_at":"2018-03-13 16:55:13","login_ip":"127.0.0.1","login_address":"\u672c\u673a","total_login":1,"is_locked":0,"signup_ip":"127.0.0.1","signup_address":"\u672c\u673a","api_token":"","bind_one":{"id":153,"app_slug":"sso","app_user_id":"fake_37465656","app_user_data":null,"user_id":153,"created_at":"2018-03-13 16:55:18","updated_at":"2018-03-13 16:55:18","deleted_at":null},"multi_attrs":[{"id":153,"skey":"role","svalue":"seller","user_id":153,"created_at":"2018-03-13 16:55:18","updated_at":"2018-03-13 16:55:18","deleted_at":null}]},{"id":155,"name":"fake_Ms. Nannie Frami I","email":"fake_vergie61@example.net","created_at":"2018-03-13 16:55:14","updated_at":"2018-03-13 16:55:14","deleted_at":null,"mobile":"13844***435","avatar":"","login_at":"2018-03-13 16:55:13","login_ip":"127.0.0.1","login_address":"\u672c\u673a","total_login":1,"is_locked":0,"signup_ip":"127.0.0.1","signup_address":"\u672c\u673a","api_token":"","bind_one":{"id":155,"app_slug":"sso","app_user_id":"fake_74425740","app_user_data":null,"user_id":155,"created_at":"2018-03-13 16:55:18","updated_at":"2018-03-13 16:55:18","deleted_at":null},"multi_attrs":[{"id":155,"skey":"role","svalue":"seller","user_id":155,"created_at":"2018-03-13 16:55:18","updated_at":"2018-03-13 16:55:18","deleted_at":null},{"id":345,"skey":"seller_leader","svalue":"199","user_id":155,"created_at":"2018-03-20 16:41:19","updated_at":"2018-03-20 16:41:19","deleted_at":null}],"seller_leader_name":"\u5f20\u627f","seller_leader_id":"199"},{"id":103,"name":"fake_Amely Jacobson","email":"fake_arden.spencer@example.org","created_at":"2018-03-13 16:55:10","updated_at":"2018-03-13 16:55:10","deleted_at":null,"mobile":"13887***763","avatar":"","login_at":"2018-03-13 16:55:10","login_ip":"127.0.0.1","login_address":"\u672c\u673a","total_login":1,"is_locked":0,"signup_ip":"127.0.0.1","signup_address":"\u672c\u673a","api_token":"","bind_one":{"id":103,"app_slug":"sso","app_user_id":"fake_44140646","app_user_data":null,"user_id":103,"created_at":"2018-03-13 16:55:10","updated_at":"2018-03-13 16:55:10","deleted_at":null},"multi_attrs":[{"id":103,"skey":"role","svalue":"seller","user_id":103,"created_at":"2018-03-13 16:55:10","updated_at":"2018-03-13 16:55:10","deleted_at":null},{"id":318,"skey":"seller_group_id","svalue":"1","user_id":103,"created_at":"2018-03-19 15:31:27","updated_at":"2018-03-19 15:31:27","deleted_at":null}],"seller_group_name":"\u9500\u552e\u4eba\u4e00\u7ec4","seller_group_id":"1"},{"id":104,"name":"fake_Dr. Heber Reynolds","email":"fake_hans39@example.net","created_at":"2018-03-13 16:55:10","updated_at":"2018-03-13 16:55:10","deleted_at":null,"mobile":"13848***664","avatar":"","login_at":"2018-03-13 16:55:10","login_ip":"127.0.0.1","login_address":"\u672c\u673a","total_login":1,"is_locked":0,"signup_ip":"127.0.0.1","signup_address":"\u672c\u673a","api_token":"","bind_one":{"id":104,"app_slug":"sso","app_user_id":"fake_42125426","app_user_data":null,"user_id":104,"created_at":"2018-03-13 16:55:10","updated_at":"2018-03-13 16:55:10","deleted_at":null},"multi_attrs":[{"id":104,"skey":"role","svalue":"seller","user_id":104,"created_at":"2018-03-13 16:55:10","updated_at":"2018-03-13 16:55:10","deleted_at":null}]},{"id":106,"name":"fake_Mr. Dino Swaniawski III","email":"fake_lilly.schroeder@example.org","created_at":"2018-03-13 16:55:10","updated_at":"2018-03-13 16:55:10","deleted_at":null,"mobile":"13861***136","avatar":"","login_at":"2018-03-13 16:55:10","login_ip":"127.0.0.1","login_address":"\u672c\u673a","total_login":1,"is_locked":0,"signup_ip":"127.0.0.1","signup_address":"\u672c\u673a","api_token":"","bind_one":{"id":106,"app_slug":"sso","app_user_id":"fake_92400269","app_user_data":null,"user_id":106,"created_at":"2018-03-13 16:55:10","updated_at":"2018-03-13 16:55:10","deleted_at":null},"multi_attrs":[{"id":106,"skey":"role","svalue":"seller","user_id":106,"created_at":"2018-03-13 16:55:10","updated_at":"2018-03-13 16:55:10","deleted_at":null}]},{"id":107,"name":"fake_Shane Spinka V","email":"fake_thiel.magnolia@example.com","created_at":"2018-03-13 16:55:10","updated_at":"2018-03-13 16:55:10","deleted_at":null,"mobile":"13878***667","avatar":"","login_at":"2018-03-13 16:55:10","login_ip":"127.0.0.1","login_address":"\u672c\u673a","total_login":1,"is_locked":0,"signup_ip":"127.0.0.1","signup_address":"\u672c\u673a","api_token":"","bind_one":{"id":107,"app_slug":"sso","app_user_id":"fake_08324248","app_user_data":null,"user_id":107,"created_at":"2018-03-13 16:55:10","updated_at":"2018-03-13 16:55:10","deleted_at":null},"multi_attrs":[{"id":107,"skey":"role","svalue":"seller","user_id":107,"created_at":"2018-03-13 16:55:10","updated_at":"2018-03-13 16:55:10","deleted_at":null},{"id":346,"skey":"seller_leader","svalue":"199","user_id":107,"created_at":"2018-03-20 16:41:23","updated_at":"2018-03-20 16:41:23","deleted_at":null}],"seller_leader_name":"\u5f20\u627f","seller_leader_id":"199"},{"id":109,"name":"fake_Mortimer Hodkiewicz DVM","email":"fake_lavonne38@example.org","created_at":"2018-03-13 16:55:10","updated_at":"2018-03-13 16:55:10","deleted_at":null,"mobile":"13827***572","avatar":"","login_at":"2018-03-13 16:55:10","login_ip":"127.0.0.1","login_address":"\u672c\u673a","total_login":1,"is_locked":0,"signup_ip":"127.0.0.1","signup_address":"\u672c\u673a","api_token":"","bind_one":{"id":109,"app_slug":"sso","app_user_id":"fake_24625460","app_user_data":null,"user_id":109,"created_at":"2018-03-13 16:55:10","updated_at":"2018-03-13 16:55:10","deleted_at":null},"multi_attrs":[{"id":109,"skey":"role","svalue":"seller","user_id":109,"created_at":"2018-03-13 16:55:10","updated_at":"2018-03-13 16:55:10","deleted_at":null}]},{"id":110,"name":"fake_Dr. Maida Powlowski","email":"fake_elmer83@example.com","created_at":"2018-03-13 16:55:10","updated_at":"2018-03-13 16:55:10","deleted_at":null,"mobile":"13862***188","avatar":"","login_at":"2018-03-13 16:55:10","login_ip":"127.0.0.1","login_address":"\u672c\u673a","total_login":1,"is_locked":0,"signup_ip":"127.0.0.1","signup_address":"\u672c\u673a","api_token":"","bind_one":{"id":110,"app_slug":"sso","app_user_id":"fake_44189226","app_user_data":null,"user_id":110,"created_at":"2018-03-13 16:55:10","updated_at":"2018-03-13 16:55:10","deleted_at":null},"multi_attrs":[{"id":110,"skey":"role","svalue":"seller","user_id":110,"created_at":"2018-03-13 16:55:10","updated_at":"2018-03-13 16:55:10","deleted_at":null}]}],"first_page_url":"http:\/\/qasales2.mxj.mx\/manage\/seller\/users\/lists?page_size=20&srch_name=&srch_mobile=&srch_email=&srch_seller_group_id=0&srch_seller_leader=0&page=1","from":1,"last_page":4,"last_page_url":"http:\/\/qasales2.mxj.mx\/manage\/seller\/users\/lists?page_size=20&srch_name=&srch_mobile=&srch_email=&srch_seller_group_id=0&srch_seller_leader=0&page=4","next_page_url":"http:\/\/qasales2.mxj.mx\/manage\/seller\/users\/lists?page_size=20&srch_name=&srch_mobile=&srch_email=&srch_seller_group_id=0&srch_seller_leader=0&page=2","path":"http:\/\/qasales2.mxj.mx\/manage\/seller\/users\/lists","per_page":20,"prev_page_url":null,"to":20,"total":67}}